…
  - Indicate to group by the column y = `country`, which then computes
    the averages across all columns for rows corresponding to each
    country, which turns out to be across all years in the dataset.

  - This returns a much tidier, smaller tibble with just **a single row
    corresponding to each country**, including the mean of (not relevant
    but computed because it is numeric:) year, life expectancy,
    population, and GDP per-capita across all years in the dataset.

``` r
avg_cols_group(.data = gapminder, y = country, na.rm = TRUE)
```

    ## # A tibble: 142 × 5
    ##    country      year lifeExp       pop gdpPercap
    ##    <fct>       <dbl>   <dbl>     <dbl>     <dbl>
    ##  1 Afghanistan 1980.    37.5 15823715.      803.
    ##  2 Albania     1980.    68.4  2580249.     3255.
    ##  3 Algeria     1980.    59.0 19875406.     4426.
    ##  4 Angola      1980.    37.9  7309390.     3607.
    ##  5 Argentina   1980.    69.1 28602240.     8956.
    ##  6 Australia   1980.    74.7 14649312.    19981.
    ##  7 Austria     1980.    73.1  7583298.    20412.
    ##  8 Bahrain     1980.    65.6   373913.    18078.
    ##  9 Bangladesh  1980.    49.8 90755395.      818.
    ## 10 Belgium     1980.    73.6  9725119.    19901.
    ## # … with 132 more rows
…
